…
bootstrap =
  weather_df %>%
  bootstrap(n = 5000) %>%
  mutate(
    models = map(strap, \(df) lm(tmax ~ tmin + prcp, data = df)),
    results = map(models, tidy),
    rsquared = map(models,glance)) %>%
  select(results, rsquared) %>% unnest(rsquared) %>%
  select(results, r.squared) %>% unnest(results) %>%
  select(term, estimate, r.squared) 

bootstrap
```

    ## # A tibble: 15,000 × 3
    ##    term        estimate r.squared
    ##    <chr>          <dbl>     <dbl>
    ##  1 (Intercept)  8.07        0.916
    ##  2 tmin         1.02        0.916
    ##  3 prcp        -0.00306     0.916
    ##  4 (Intercept)  8.05        0.914
    ##  5 tmin         1.01        0.914
    ##  6 prcp        -0.00188     0.914
    ##  7 (Intercept)  7.41        0.931
    ##  8 tmin         1.04        0.931
    ##  9 prcp         0.00376     0.931
    ## 10 (Intercept)  8.44        0.905
    ## # ℹ 14,990 more rows
…
